Industry,model, model type, error type, missed opportunities
B2B, churn classifier, classifier, False Negative, the model wrongly predict some customer as "not churner". You do not take any action, the customer leaves
Retail, sales forecasting, regression, underestimation, your model forecast 90 sales of burger so you only bought 90 steaks.
Energy, consumption forecast, regression, underestimation, you shut down one power plant sector beaucse you expect only 45Tw of electricity consumption
Retail, Recommender system, Multiclassification, Class error, your recommender system offers a 34$ items to someone who would have buy a 120$ item
B2B2, Text Classifier, NLP, class error, a very important email from a very important customer goes to the "low priority" bucket